{
  "version": 1,
  "license": "CC-BY-SA-3.0",
  "copyright": "made by sadcmb (discord) for VXStation14",
  "size": {
    "x": 32,
    "y": 32
  },
  "states": [
    {
      "name": "3bTG"
    },
    {
      "name": "3bTG_empty"
    },
    {
      "name": "adrenaline"
    },
    {
      "name": "adrenaline_empty"
    },
    {
      "name": "AHF1-M"
    },
    {
      "name": "AHF1-M_empty"
    },
    {
      "name": "eTG"
    },
    {
      "name": "eTG_empty"
    },
    {
      "name": "L1"
    },
    {
      "name": "L1_empty"
    },
    {
      "name": "meldonin"
    },
    {
      "name": "meldonin_empty"
    },
    {
      "name": "morphine"
    },
    {
      "name": "morphine_empty"
    },
    {
      "name": "MULE"
    },
    {
      "name": "MULE_empty"
    },
    {
      "name": "obdolbos"
    },
    {
      "name": "obdolbos_empty"
    },
    {
      "name": "obdolbos2"
    },
    {
      "name": "obdolbos2_empty"
    },
    {
      "name": "P22"
    },
    {
      "name": "P22_empty"
    },
    {
      "name": "perfotoran"
    },
    {
      "name": "perfotoran_empty"
    },
    {
      "name": "PNB"
    },
    {
      "name": "PNB_empty"
    },
    {
      "name": "propital"
    },
    {
      "name": "propital_empty"
    },
    {
      "name": "SJ1"
    },
    {
      "name": "SJ1_empty"
    },
    {
      "name": "SJ6"
    },
    {
      "name": "SJ6_empty"
    },
    {
      "name": "SJ9"
    },
    {
      "name": "SJ9_empty"
    },
    {
      "name": "SJ12"
    },
    {
      "name": "SJ12_empty"
    },
    {
      "name": "trimadol"
    },
    {
      "name": "trimadol_empty"
    },
    {
      "name": "xTG-12"
    },
    {
      "name": "xTG-12_empty"
    },
    {
      "name": "zagustin"
    },
    {
      "name": "zagustin_empty"
    },
	{
      "name": "medipen-inhand-left"
    },
    {
      "name": "medipen-inhand-right"
    }
  ]
}
